com\n3\WD\settings\classloader\ReadConfig.class
com\n3\WD\settings\IReader.class
com\n3\TestNG\CustomTestNGCucumberRunner.class
com\n3\TestNG\CustomAbstractTestNGCucumberTests.class
com\n3\WD\browser\CustomFirefoxDriver.class
com\n3\TDD\excelreader\ExcelReader$ExcelReaderBuilder.class
com\n3\WD\support\ScreenShotController.class
com\n3\TDD\excelreader\ReadExcel.class
com\n3\TDD\excelreader\WriteExcel.class
com\n3\WD\settings\ResourceUtils.class
com\n3\WD\browser\exePaths\LaunchChromeBrowser.class
com\n3\POM\SafetyCard\factory\CustomFactory.class
com\n3\TDD\excelreader\ReadExcel$1.class
com\n3\POM\SafetyCard\LoginPageClass.class
com\n3\WD\support\WaitTool$5.class
com\n3\WD\support\WaitTool$2.class
com\n3\TestNG\CustomTestNGCucumberRunnerWithTag.class
com\n3\WD\support\TextBox.class
com\n3\POM\SafetyCard\factory\PageName.class
com\n3\WD\support\Alert.class
com\n3\WD\browser\CustomInternetExplorerDriver.class
com\n3\TDD\excelreader\ExcelReader$1.class
com\n3\WD\support\WaitTool$4.class
com\n3\WD\settings\CustomThreadLocal.class
com\n3\WD\support\Dropdown.class
com\n3\TDD\transform\ExcelDataToDataTable.class
com\n3\POM\SafetyCard\INScalculator.class
com\n3\WD\settings\ReadConfigProperties.class
com\n3\POM\SafetyCard\RegistrationPageClass.class
com\n3\TestNG\CustomAbstractTestNGCucumberTestsWithTag.class
com\n3\WD\support\Button.class
com\n3\WD\support\WaitTool$1.class
com\n3\POM\SafetyCard\factory\SafetyCard.class
com\n3\POM\SafetyCard\UserOffersManagementPageClass.class
com\n3\POM\SafetyCard\factory\CustomFactory$1.class
com\n3\WD\support\WaitTool$3.class
com\n3\WD\browser\CustomChromeDriver.class
com\n3\WD\support\Window.class
com\n3\WD\browser\BrowserConfiguration.class
com\n3\WD\support\DriverSvS.class
com\n3\WD\support\Browser.class
com\n3\POM\SafetyCard\RequestOfferPageClass.class
com\n3\WD\support\WaitTool.class
com\n3\POM\SafetyCard\PageBase.class
com\n3\WD\browser\exePaths\LaunchFirefoxBrowser.class
com\n3\Cucumber\GeneralHook.class
com\n3\WD\settings\classloader\AbsolutePath.class
com\n3\TDD\excelreader\ExcelReader.class
com\n3\WD\browser\WebDriverInteface.class
com\n3\POM\SafetyCard\HomePageClass.class
